…
If you wanted to center them by hand, you’d just do something like this.

``` r
alcohol1_pp %>% 
  mutate(peer_c = peer - mean(peer))
```

    ## # A tibble: 246 x 10
    ##       id   age   coa  male age_14 alcuse  peer  cpeer  ccoa peer_c
    ##    <dbl> <dbl> <dbl> <dbl>  <dbl>  <dbl> <dbl>  <dbl> <dbl>  <dbl>
    ##  1     1    14     1     0      0   1.73 1.26   0.247 0.549  0.247
    ##  2     1    15     1     0      1   2    1.26   0.247 0.549  0.247
    ##  3     1    16     1     0      2   2    1.26   0.247 0.549  0.247
    ##  4     2    14     1     1      0   0    0.894 -0.124 0.549 -0.123
    ##  5     2    15     1     1      1   0    0.894 -0.124 0.549 -0.123
    ##  6     2    16     1     1      2   1    0.894 -0.124 0.549 -0.123
    ##  7     3    14     1     1      0   1    0.894 -0.124 0.549 -0.123
    ##  8     3    15     1     1      1   2    0.894 -0.124 0.549 -0.123
    ##  9     3    16     1     1      2   3.32 0.894 -0.124 0.549 -0.123
    ## 10     4    14     1     1      0   0    1.79   0.771 0.549  0.771
    ## # … with 236 more rows
…
