…
Let's get ready to make our version of Figure 5.2. We'll start with `fitted()` work.

``` r
nd <-
  tibble(black = 0:1) %>% 
  expand(black,
         hgc_9 = c(0, 3)) %>% 
  expand(nesting(black, hgc_9),
         exper = seq(from = 0, to = 11, length.out = 30))

nd
```

    ## # A tibble: 120 x 3
    ##    black hgc_9 exper
    ##    <int> <dbl> <dbl>
    ##  1     0     0 0    
    ##  2     0     0 0.379
    ##  3     0     0 0.759
    ##  4     0     0 1.14 
    ##  5     0     0 1.52 
    ##  6     0     0 1.90 
    ##  7     0     0 2.28 
    ##  8     0     0 2.66 
    ##  9     0     0 3.03 
    ## 10     0     0 3.41 
    ## # … with 110 more rows
…
