4 Doing Data Analysis with the Multilevel Model for Change – *Applied longitudinal data analysis* in brms and the tidyverse
…
f <- f %>% 
  pivot_longer(-draw,
               names_to = "row",
               values_to = "fitted") %>% 
  mutate(row = row %>% as.integer()) %>% 
  left_join(
    alcohol1_pp %>% 
      mutate(row = 1:n()) %>% 
      select(row, alcuse),
    by = "row") 

f

# A tibble: 984,000 × 4
   draw    row fitted alcuse
   <chr> <int>  <dbl>  <dbl>
 1 1         1  0.758   1.73
 2 1         2  0.945   2   
 3 1         3  1.13    2   
 4 1         4  0.758   0   
 5 1         5  0.945   0   
 6 1         6  1.13    1   
 7 1         7  0.758   1   
 8 1         8  0.945   2   
 9 1         9  1.13    3.32
10 1        10  0.758   0   
# ℹ 983,990 more rows
…
# A tibble: 1 × 2
      r     r2
  <dbl>  <dbl>
1 0.186 0.0345

This is close to the \(R_{y, \hat y}^2 = .043\) Singer and Willett reported in the text. It might seem unsatisfying how this seemingly ignores model uncertainty by collapsing across HMC draws. Here’s a look at what happens is we compute the \(R_{y, \hat y}^2\) separately for each iteration.

f %>% 
  mutate(draw = draw %>% as.double()) %>% 
  group_by(draw) %>% 
  summarise(r  = cor(fitted, alcuse),
            r2 = cor(fitted, alcuse)^2)

# A tibble: 4,000 × 3
    draw     r     r2
   <dbl> <dbl>  <dbl>
 1     1 0.208 0.0434
 2     2 0.208 0.0434
 3     3 0.208 0.0434
 4     4 0.208 0.0434
 5     5 0.208 0.0434
 6     6 0.208 0.0434
 7     7 0.208 0.0434
 8     8 0.208 0.0434
 9     9 0.208 0.0434
10    10 0.208 0.0434
# ℹ 3,990 more rows
…
Just for kicks, here’s a more compact alternative to our fitted() + left_join() approach that more closely resembles the work flow Singer and Willett showed on pages 102 and 103.

tibble(age_14 = 0:2) %>% 
  mutate(fitted = map(age_14, ~ draws$b_Intercept + draws$b_age_14 * .)) %>% 
  full_join(alcohol1_pp %>% select(id, age_14, alcuse),
            by = "age_14") %>% 
  mutate(row = 1:n()) %>% 
  unnest(fitted) %>% 
  mutate(draw = rep(1:4000, times = alcohol1_pp %>% nrow())) %>% 
  group_by(draw) %>% 
  summarise(r  = cor(fitted, alcuse),
            r2 = cor(fitted, alcuse)^2)

# A tibble: 4,000 × 3
    draw     r     r2
   <int> <dbl>  <dbl>
 1     1 0.208 0.0434
 2     2 0.208 0.0434
 3     3 0.208 0.0434
 4     4 0.208 0.0434
 5     5 0.208 0.0434
 6     6 0.208 0.0434
 7     7 0.208 0.0434
 8     8 0.208 0.0434
 9     9 0.208 0.0434
10    10 0.208 0.0434
# ℹ 3,990 more rows
…
If you wanted to center them by hand, you’d just execute something like this.

alcohol1_pp %>% 
  mutate(peer_c = peer - mean(peer))

# A tibble: 246 × 10
      id   age   coa  male age_14 alcuse  peer  cpeer  ccoa peer_c
   <dbl> <dbl> <dbl> <dbl>  <dbl>  <dbl> <dbl>  <dbl> <dbl>  <dbl>
 1     1    14     1     0      0   1.73 1.26   0.247 0.549  0.247
 2     1    15     1     0      1   2    1.26   0.247 0.549  0.247
 3     1    16     1     0      2   2    1.26   0.247 0.549  0.247
 4     2    14     1     1      0   0    0.894 -0.124 0.549 -0.123
 5     2    15     1     1      1   0    0.894 -0.124 0.549 -0.123
 6     2    16     1     1      2   1    0.894 -0.124 0.549 -0.123
 7     3    14     1     1      0   1    0.894 -0.124 0.549 -0.123
 8     3    15     1     1      1   2    0.894 -0.124 0.549 -0.123
 9     3    16     1     1      2   3.32 0.894 -0.124 0.549 -0.123
10     4    14     1     1      0   0    1.79   0.771 0.549  0.771
# ℹ 236 more rows
…
