5 Treating Time More Flexibly – *Applied longitudinal data analysis* in brms and the tidyverse
…
   Estimate   Est.Error        Q2.5       Q97.5 
-0.41776049  0.08218066 -0.58584541 -0.25422993 

fixef(fit5.12)["months", ]

   Estimate   Est.Error        Q2.5       Q97.5 
-0.20769610  0.09197149 -0.38691201 -0.02650551 

You might be wondering why the quote from Singer and Willett used positive numbers while our parameter estimates have negative ones. No, there’s no mistake, there. Negative parameter estimates for monthly trajectories are then same thing as expressing a rate of decline with a positive number. But anyways, you see our estimates are on par with theirs. With our Bayesian paradigm, it’s also easy to get a formal difference distribution.

tibble(fit5.11 = as_draws_df(fit5.11) %>% pull("b_months"),
       fit5.12 = as_draws_df(fit5.12) %>% pull("b_months"))

# A tibble: 4,000 × 2
   fit5.11 fit5.12
     <dbl>   <dbl>
 1  -0.436 -0.312 
 2  -0.507 -0.264 
 3  -0.491 -0.277 
 4  -0.340 -0.412 
 5  -0.374 -0.178 
 6  -0.476 -0.257 
 7  -0.313 -0.0517
 8  -0.541 -0.278 
 9  -0.445 -0.150 
10  -0.317 -0.0567
# ℹ 3,990 more rows
…
