11 Fitting Basic Discrete-Time Hazard Models – *Applied longitudinal data analysis* in brms and the tidyverse
…
  # make the full life table
  bind_rows(row_1, most_rows)
}

We’ll use make_lt() separately for each fit, stack the results from the first on top of those from the second, and add a pt column to index the rows. This will be our version of Table 11.1 (p. 360).

lt <- bind_rows(make_lt(fit11.1), make_lt(fit11.2), make_lt(fit11.3)) %>% 
  mutate(pt = factor(rep(c("pt = 0", "pt = 1", "overall"), each = n() / 3))) %>% 
  select(pt, everything())

lt

# A tibble: 21 × 8
   pt      time time_int n_risk n_event n_censored hazard_fun survivor_fun
   <fct>  <dbl> <chr>     <dbl>   <dbl>      <dbl>      <dbl>        <dbl>
 1 pt = 0     6 [6, 7)       72      NA         NA    NA             1    
 2 pt = 0     7 [7, 8)       72       2          0     0.0278        0.972
 3 pt = 0     8 [8, 9)       70       2          0     0.0286        0.944
 4 pt = 0     9 [9, 10)      68       8          0     0.118         0.833
 5 pt = 0    10 [10, 11)     60       8          0     0.133         0.722
 6 pt = 0    11 [11, 12)     52      10          0     0.192         0.583
 7 pt = 0    12 [12, 13)     42       8         34     0.190         0.472
 8 pt = 1     6 [6, 7)      108      NA         NA    NA             1    
 9 pt = 1     7 [7, 8)      108      13          0     0.120         0.880
10 pt = 1     8 [8, 9)       95       5          0     0.0526        0.833
# ℹ 11 more rows
…
Odds are bounded to values of zero and above and have an inflection at 1. Log-odds are unbounded and have an inflection point at 0. Here we’ll save the odds and log-odds for our hazard functions within the lt life table.

lt <- lt %>% 
  mutate(odds     = odds(hazard_fun),
         log_odds = log_odds(hazard_fun)) 

lt

# A tibble: 21 × 10
   pt      time time_int n_risk n_event n_censored hazard_fun survivor_fun    odds log_odds
   <fct>  <dbl> <chr>     <dbl>   <dbl>      <dbl>      <dbl>        <dbl>   <dbl>    <dbl>
 1 pt = 0     6 [6, 7)       72      NA         NA    NA             1     NA         NA   
 2 pt = 0     7 [7, 8)       72       2          0     0.0278        0.972  0.0286    -3.56
 3 pt = 0     8 [8, 9)       70       2          0     0.0286        0.944  0.0294    -3.53
 4 pt = 0     9 [9, 10)      68       8          0     0.118         0.833  0.133     -2.01
 5 pt = 0    10 [10, 11)     60       8          0     0.133         0.722  0.154     -1.87
 6 pt = 0    11 [11, 12)     52      10          0     0.192         0.583  0.238     -1.44
 7 pt = 0    12 [12, 13)     42       8         34     0.190         0.472  0.235     -1.45
 8 pt = 1     6 [6, 7)      108      NA         NA    NA             1     NA         NA   
 9 pt = 1     7 [7, 8)      108      13          0     0.120         0.880  0.137     -1.99
10 pt = 1     8 [8, 9)       95       5          0     0.0526        0.833  0.0556    -2.89
# ℹ 11 more rows
…
To compute the LL for each HMC iteration, you sum across the rows. Deviance is that sum multiplied by -2. Here’s that in a tibble.

ll <- fit11.7 %>%
  log_lik() %>%
  as_tibble(.name_repair = ~ str_c("c", 1:822)) %>%
  mutate(ll = rowSums(.)) %>% 
  mutate(deviance = -2 * ll) %>% 
  select(ll, deviance, everything())

ll

# A tibble: 4,000 × 824
      ll deviance      c1      c2    c3      c4      c5     c6     c7     c8     c9     c10     c11    c12    c13    c14    c15
   <dbl>    <dbl>   <dbl>   <dbl> <dbl>   <dbl>   <dbl>  <dbl>  <dbl>  <dbl>  <dbl>   <dbl>   <dbl>  <dbl>  <dbl>  <dbl>  <dbl>
 1 -329.     658. -0.109  -0.0455 -1.98 -0.109  -0.0455 -0.149 -0.253 -0.219 -0.255 -0.109  -0.0455 -0.149 -0.253 -0.219 -0.255
 2 -330.     661. -0.0709 -0.0295 -2.11 -0.0709 -0.0295 -0.130 -0.284 -0.182 -0.297 -0.0709 -0.0295 -0.130 -0.284 -0.182 -0.297
 3 -331.     662. -0.104  -0.0605 -1.68 -0.104  -0.0605 -0.206 -0.176 -0.395 -0.455 -0.104  -0.0605 -0.206 -0.176 -0.395 -0.455
 4 -329.     658. -0.0756 -0.0328 -1.97 -0.0756 -0.0328 -0.151 -0.333 -0.199 -0.366 -0.0756 -0.0328 -0.151 -0.333 -0.199 -0.366
 5 -327.     655. -0.0781 -0.0504 -1.95 -0.0781 -0.0504 -0.154 -0.307 -0.249 -0.346 -0.0781 -0.0504 -0.154 -0.307 -0.249 -0.346
 6 -328.     657. -0.0611 -0.0425 -1.89 -0.0611 -0.0425 -0.163 -0.299 -0.229 -0.310 -0.0611 -0.0425 -0.163 -0.299 -0.229 -0.310
 7 -331.     662. -0.0841 -0.0342 -1.92 -0.0841 -0.0342 -0.159 -0.385 -0.235 -0.298 -0.0841 -0.0342 -0.159 -0.385 -0.235 -0.298
 8 -329.     657. -0.114  -0.0306 -1.69 -0.114  -0.0306 -0.204 -0.209 -0.244 -0.313 -0.114  -0.0306 -0.204 -0.209 -0.244 -0.313
 9 -328.     655. -0.0679 -0.0407 -2.05 -0.0679 -0.0407 -0.138 -0.259 -0.336 -0.434 -0.0679 -0.0407 -0.138 -0.259 -0.336 -0.434
10 -329.     658. -0.0616 -0.0749 -2.10 -0.0616 -0.0749 -0.131 -0.284 -0.279 -0.396 -0.0616 -0.0749 -0.131 -0.284 -0.279 -0.396
# ℹ 3,990 more rows
# ℹ 807 more variables: c16 <dbl>, c17 <dbl>, c18 <dbl>, c19 <dbl>, c20 <dbl>, c21 <dbl>, c22 <dbl>, c23 <dbl>, c24 <dbl>,
#   c25 <dbl>, c26 <dbl>, c27 <dbl>, c28 <dbl>, c29 <dbl>, c30 <dbl>, c31 <dbl>, c32 <dbl>, c33 <dbl>, c34 <dbl>, c35 <dbl>,
#   c36 <dbl>, c37 <dbl>, c38 <dbl>, c39 <dbl>, c40 <dbl>, c41 <dbl>, c42 <dbl>, c43 <dbl>, c44 <dbl>, c45 <dbl>, c46 <dbl>,
#   c47 <dbl>, c48 <dbl>, c49 <dbl>, c50 <dbl>, c51 <dbl>, c52 <dbl>, c53 <dbl>, c54 <dbl>, c55 <dbl>, c56 <dbl>, c57 <dbl>,
#   c58 <dbl>, c59 <dbl>, c60 <dbl>, c61 <dbl>, c62 <dbl>, c63 <dbl>, c64 <dbl>, c65 <dbl>, c66 <dbl>, c67 <dbl>, c68 <dbl>,
#   c69 <dbl>, c70 <dbl>, c71 <dbl>, c72 <dbl>, c73 <dbl>, c74 <dbl>, c75 <dbl>, c76 <dbl>, c77 <dbl>, c78 <dbl>, c79 <dbl>, …
…
