…
```r
lt <-
  bind_rows(make_lt(fit11.1),
            make_lt(fit11.2),
            make_lt(fit11.3)) %>% 
  mutate(pt = factor(rep(c("pt = 0", "pt = 1", "overall"), each = n() / 3))) %>% 
  select(pt, everything())

lt
```

```
## # A tibble: 21 × 8
##    pt      time time_int n_risk n_event n_censored hazard_fun survivor_fun
##    <fct>  <dbl> <chr>     <dbl>   <dbl>      <dbl>      <dbl>        <dbl>
##  1 pt = 0     6 [6, 7)       72      NA         NA    NA             1    
##  2 pt = 0     7 [7, 8)       72       2          0     0.0278        0.972
##  3 pt = 0     8 [8, 9)       70       2          0     0.0286        0.944
##  4 pt = 0     9 [9, 10)      68       8          0     0.118         0.833
##  5 pt = 0    10 [10, 11)     60       8          0     0.133         0.722
##  6 pt = 0    11 [11, 12)     52      10          0     0.192         0.583
##  7 pt = 0    12 [12, 13)     42       8         34     0.190         0.472
##  8 pt = 1     6 [6, 7)      108      NA         NA    NA             1    
##  9 pt = 1     7 [7, 8)      108      13          0     0.120         0.880
## 10 pt = 1     8 [8, 9)       95       5          0     0.0526        0.833
## # ℹ 11 more rows
```
…
Odds are bounded to values of zero and above and have an inflection at 1. Log-odds are unbounded and have an inflection point at 0. Here we'll save the odds and log-odds for our hazard functions within the `lt` life table.


```r
lt <-
  lt %>% 
  mutate(odds     = odds(hazard_fun),
         log_odds = log_odds(hazard_fun)) 

lt
```

```
## # A tibble: 21 × 10
##    pt      time time_int n_risk n_event n_censored hazard_fun survivor_fun    odds log_odds
##    <fct>  <dbl> <chr>     <dbl>   <dbl>      <dbl>      <dbl>        <dbl>   <dbl>    <dbl>
##  1 pt = 0     6 [6, 7)       72      NA         NA    NA             1     NA         NA   
##  2 pt = 0     7 [7, 8)       72       2          0     0.0278        0.972  0.0286    -3.56
##  3 pt = 0     8 [8, 9)       70       2          0     0.0286        0.944  0.0294    -3.53
##  4 pt = 0     9 [9, 10)      68       8          0     0.118         0.833  0.133     -2.01
##  5 pt = 0    10 [10, 11)     60       8          0     0.133         0.722  0.154     -1.87
##  6 pt = 0    11 [11, 12)     52      10          0     0.192         0.583  0.238     -1.44
##  7 pt = 0    12 [12, 13)     42       8         34     0.190         0.472  0.235     -1.45
##  8 pt = 1     6 [6, 7)      108      NA         NA    NA             1     NA         NA   
##  9 pt = 1     7 [7, 8)      108      13          0     0.120         0.880  0.137     -1.99
## 10 pt = 1     8 [8, 9)       95       5          0     0.0526        0.833  0.0556    -2.89
## # ℹ 11 more rows
```
…
```r
ll <-
  fit11.7 %>%
  log_lik() %>%
  as_tibble(.name_repair = ~ str_c("c", 1:822)) %>%
  mutate(ll = rowSums(.)) %>% 
  mutate(deviance = -2 * ll) %>% 
  select(ll, deviance, everything())

ll
```

```
## # A tibble: 4,000 × 824
##       ll deviance      c1      c2    c3      c4      c5      c6     c7     c8     c9     c10     c11     c12
##    <dbl>    <dbl>   <dbl>   <dbl> <dbl>   <dbl>   <dbl>   <dbl>  <dbl>  <dbl>  <dbl>   <dbl>   <dbl>   <dbl>
##  1 -330.     660. -0.0988 -0.0477 -2.03 -0.0988 -0.0477 -0.141  -0.252 -0.225 -0.234 -0.0988 -0.0477 -0.141 
##  2 -328.     655. -0.0798 -0.0435 -1.91 -0.0798 -0.0435 -0.160  -0.201 -0.348 -0.462 -0.0798 -0.0435 -0.160 
##  3 -331.     661. -0.0880 -0.0230 -1.86 -0.0880 -0.0230 -0.170  -0.210 -0.298 -0.620 -0.0880 -0.0230 -0.170 
##  4 -333.     667. -0.0665 -0.0525 -2.35 -0.0665 -0.0525 -0.0998 -0.182 -0.343 -0.588 -0.0665 -0.0525 -0.0998
##  5 -337.     675. -0.0827 -0.0564 -2.33 -0.0827 -0.0564 -0.102  -0.140 -0.440 -0.556 -0.0827 -0.0564 -0.102 
##  6 -328.     657. -0.0779 -0.0514 -2.24 -0.0779 -0.0514 -0.113  -0.205 -0.237 -0.376 -0.0779 -0.0514 -0.113 
##  7 -329.     658. -0.0647 -0.0597 -2.03 -0.0647 -0.0597 -0.140  -0.201 -0.358 -0.359 -0.0647 -0.0597 -0.140 
##  8 -327.     654. -0.0931 -0.0428 -1.72 -0.0931 -0.0428 -0.198  -0.241 -0.317 -0.349 -0.0931 -0.0428 -0.198 
##  9 -327.     653. -0.0934 -0.0483 -2.04 -0.0934 -0.0483 -0.139  -0.254 -0.278 -0.443 -0.0934 -0.0483 -0.139 
## 10 -329.     658. -0.0837 -0.0331 -2.19 -0.0837 -0.0331 -0.119  -0.191 -0.332 -0.363 -0.0837 -0.0331 -0.119 
## # ℹ 3,990 more rows
## # ℹ 810 more variables: c13 <dbl>, c14 <dbl>, c15 <dbl>, c16 <dbl>, c17 <dbl>, c18 <dbl>, c19 <dbl>,
## #   c20 <dbl>, c21 <dbl>, c22 <dbl>, c23 <dbl>, c24 <dbl>, c25 <dbl>, c26 <dbl>, c27 <dbl>, c28 <dbl>,
## #   c29 <dbl>, c30 <dbl>, c31 <dbl>, c32 <dbl>, c33 <dbl>, c34 <dbl>, c35 <dbl>, c36 <dbl>, c37 <dbl>,
## #   c38 <dbl>, c39 <dbl>, c40 <dbl>, c41 <dbl>, c42 <dbl>, c43 <dbl>, c44 <dbl>, c45 <dbl>, c46 <dbl>,
## #   c47 <dbl>, c48 <dbl>, c49 <dbl>, c50 <dbl>, c51 <dbl>, c52 <dbl>, c53 <dbl>, c54 <dbl>, c55 <dbl>,
## #   c56 <dbl>, c57 <dbl>, c58 <dbl>, c59 <dbl>, c60 <dbl>, c61 <dbl>, c62 <dbl>, c63 <dbl>, c64 <dbl>, …
```
…
