10 Describing Discrete-Time Event Occurrence Data | Applied longitudinal data analysis in brms and the tidyverse
…
You can transform the person-level survival data set into the person-period variant shown on the right panel of Figure 10.4 with a workflow like this.

teachers_pp <-
  teachers %>% 
  uncount(weights = t) %>% 
  group_by(id) %>% 
  mutate(period = 1:n()) %>% 
  mutate(event = if_else(period == max(period) & censor == 0, 1, 0)) %>% 
  select(-censor) %>% 
  ungroup()

teachers_pp %>% 
  filter(id %in% c(20, 126, 129))

## # A tibble: 27 x 3
##       id period event
##    <dbl>  <int> <dbl>
##  1    20      1     0
##  2    20      2     0
##  3    20      3     1
##  4   126      1     0
##  5   126      2     0
##  6   126      3     0
##  7   126      4     0
##  8   126      5     0
##  9   126      6     0
## 10   126      7     0
## # … with 17 more rows
…
