7 Examining the Multilevel Model’s Error Covariance Structure | Applied longitudinal data analysis in brms and the tidyverse
…
The data are composed of 35 people’s scores on a cognitive task, across 4 time points.

opposites_pp %>% 
  count(id)

## # A tibble: 35 × 2
##       id     n
##    <dbl> <int>
##  1     1     4
##  2     2     4
##  3     3     4
##  4     4     4
##  5     5     4
##  6     6     4
##  7     7     4
##  8     8     4
##  9     9     4
## 10    10     4
## # ℹ 25 more rows
…
Here’s the numeric summary.

sigma.hcs %>% 
  pivot_longer(everything()) %>% 
  group_by(name) %>% 
  median_qi(value) %>% 
  mutate_if(is.double, round, digits = 2)

## # A tibble: 21 × 7
##    name                    value .lower  .upper .width .point .interval
##    <chr>                   <dbl>  <dbl>   <dbl>  <dbl> <chr>  <chr>    
##  1 rho                      0.72   0.59    0.83   0.95 median qi       
##  2 sigma[1]                37.9   30.4    49.2    0.95 median qi       
##  3 sigma[1]*sigma[2]*rho  892.   533.   1561.     0.95 median qi       
##  4 sigma[1]*sigma[3]*rho  924.   547.   1607.     0.95 median qi       
##  5 sigma[1]*sigma[4]*rho  992.   585.   1714.     0.95 median qi       
##  6 sigma[1]^2            1439.   922.   2419.     0.95 median qi       
##  7 sigma[2]                32.7   26.5    42.1    0.95 median qi       
##  8 sigma[2]*sigma[1]*rho  892.   533.   1561.     0.95 median qi       
##  9 sigma[2]*sigma[3]*rho  802.   476.   1384.     0.95 median qi       
## 10 sigma[2]*sigma[4]*rho  854.   512.   1486.     0.95 median qi       
## # ℹ 11 more rows
…
