12 Extending the Discrete-Time Hazard Model | Applied longitudinal data analysis in brms and the tidyverse
…
depression_aggregated

## # A tibble: 72 × 8
##    age_18 pd     event no_event   age total proportion logit
##     <dbl> <fct>  <int>    <int> <dbl> <int>      <dbl> <dbl>
##  1    -14 pd = 0     1     1353     4  1354   0.000739 -7.21
##  2    -14 pd = 1    NA       39     4    NA  NA        NA   
##  3    -13 pd = 0    NA     1344     5    NA  NA        NA   
##  4    -13 pd = 1    NA       48     5    NA  NA        NA   
##  5    -12 pd = 0     4     1333     6  1337   0.00299  -5.81
##  6    -12 pd = 1     1       54     6    55   0.0182   -3.99
##  7    -11 pd = 0     5     1322     7  1327   0.00377  -5.58
##  8    -11 pd = 1    NA       60     7    NA  NA        NA   
##  9    -10 pd = 0     2     1313     8  1315   0.00152  -6.49
## 10    -10 pd = 1     1       66     8    67   0.0149   -4.19
## # ℹ 62 more rows
…
