11 Fitting Basic Discrete-Time Hazard Models | Applied longitudinal data analysis in brms and the tidyverse
…
}

We’ll use make_lt() separately for each fit, stack the results from the first on top of those from the second, and add a pt column to index the rows. This will be our version of Table 11.1 (p. 360).

lt <-
  bind_rows(make_lt(fit11.1),
            make_lt(fit11.2),
            make_lt(fit11.3)) %>% 
  mutate(pt = factor(rep(c("pt = 0", "pt = 1", "overall"), each = n() / 3))) %>% 
  select(pt, everything())

lt

## # A tibble: 21 x 8
##    pt      time time_int n_risk n_event n_censored hazard_fun survivor_fun
##    <fct>  <dbl> <chr>     <dbl>   <dbl>      <dbl>      <dbl>        <dbl>
##  1 pt = 0     6 [6, 7)       72      NA         NA    NA             1    
##  2 pt = 0     7 [7, 8)       72       2          0     0.0278        0.972
##  3 pt = 0     8 [8, 9)       70       2          0     0.0286        0.944
##  4 pt = 0     9 [9, 10)      68       8          0     0.118         0.833
##  5 pt = 0    10 [10, 11)     60       8          0     0.133         0.722
##  6 pt = 0    11 [11, 12)     52      10          0     0.192         0.583
##  7 pt = 0    12 [12, 13)     42       8         34     0.190         0.472
##  8 pt = 1     6 [6, 7)      108      NA         NA    NA             1    
##  9 pt = 1     7 [7, 8)      108      13          0     0.120         0.880
## 10 pt = 1     8 [8, 9)       95       5          0     0.0526        0.833
## # … with 11 more rows
…
Odds are bounded to values of zero and above and have an inflection at 1. Log-odds are unbounded and have an inflection point at 0. Here we’ll save the odds and log-odds for our hazard functions within the lt life table.

lt <-
  lt %>% 
  mutate(odds     = odds(hazard_fun),
         log_odds = log_odds(hazard_fun)) 

lt

## # A tibble: 21 x 10
##    pt      time time_int n_risk n_event n_censored hazard_fun survivor_fun    odds log_odds
##    <fct>  <dbl> <chr>     <dbl>   <dbl>      <dbl>      <dbl>        <dbl>   <dbl>    <dbl>
##  1 pt = 0     6 [6, 7)       72      NA         NA    NA             1     NA         NA   
##  2 pt = 0     7 [7, 8)       72       2          0     0.0278        0.972  0.0286    -3.56
##  3 pt = 0     8 [8, 9)       70       2          0     0.0286        0.944  0.0294    -3.53
##  4 pt = 0     9 [9, 10)      68       8          0     0.118         0.833  0.133     -2.01
##  5 pt = 0    10 [10, 11)     60       8          0     0.133         0.722  0.154     -1.87
##  6 pt = 0    11 [11, 12)     52      10          0     0.192         0.583  0.238     -1.44
##  7 pt = 0    12 [12, 13)     42       8         34     0.190         0.472  0.235     -1.45
##  8 pt = 1     6 [6, 7)      108      NA         NA    NA             1     NA         NA   
##  9 pt = 1     7 [7, 8)      108      13          0     0.120         0.880  0.137     -1.99
## 10 pt = 1     8 [8, 9)       95       5          0     0.0526        0.833  0.0556    -2.89
## # … with 11 more rows
…
To compute the LL for each HMC iteration, you sum across the rows. Deviance is that sum multiplied by -2. Here’s that in a tibble.

ll <-
  fit11.7 %>%
  log_lik() %>%
  as_tibble(.name_repair = ~ str_c("c", 1:822)) %>%
  mutate(ll = rowSums(.)) %>% 
  mutate(deviance = -2 * ll) %>% 
  select(ll, deviance, everything())

ll

## # A tibble: 4,000 x 824
##       ll deviance      c1      c2    c3      c4      c5     c6     c7     c8     c9     c10     c11    c12
##    <dbl>    <dbl>   <dbl>   <dbl> <dbl>   <dbl>   <dbl>  <dbl>  <dbl>  <dbl>  <dbl>   <dbl>   <dbl>  <dbl>
##  1 -327.     654. -0.0890 -0.0533 -1.79 -0.0890 -0.0533 -0.182 -0.226 -0.299 -0.460 -0.0890 -0.0533 -0.182
##  2 -329.     658. -0.0981 -0.0569 -1.54 -0.0981 -0.0569 -0.241 -0.277 -0.232 -0.408 -0.0981 -0.0569 -0.241
##  3 -328.     655. -0.0868 -0.0339 -2.18 -0.0868 -0.0339 -0.120 -0.231 -0.296 -0.340 -0.0868 -0.0339 -0.120
##  4 -328.     656. -0.0930 -0.0393 -1.63 -0.0930 -0.0393 -0.218 -0.264 -0.231 -0.455 -0.0930 -0.0393 -0.218
##  5 -331.     662. -0.112  -0.0208 -2.08 -0.112  -0.0208 -0.134 -0.217 -0.219 -0.261 -0.112  -0.0208 -0.134
##  6 -330.     659. -0.0685 -0.0613 -1.69 -0.0685 -0.0613 -0.204 -0.276 -0.290 -0.568 -0.0685 -0.0613 -0.204
##  7 -328.     656. -0.0915 -0.0388 -1.85 -0.0915 -0.0388 -0.171 -0.268 -0.321 -0.547 -0.0915 -0.0388 -0.171
##  8 -330.     659. -0.0517 -0.0617 -1.84 -0.0517 -0.0617 -0.173 -0.200 -0.280 -0.297 -0.0517 -0.0617 -0.173
##  9 -330.     660. -0.118  -0.0286 -2.20 -0.118  -0.0286 -0.117 -0.293 -0.253 -0.522 -0.118  -0.0286 -0.117
## 10 -329.     658. -0.0719 -0.0203 -1.68 -0.0719 -0.0203 -0.206 -0.234 -0.273 -0.329 -0.0719 -0.0203 -0.206
## # … with 3,990 more rows, and 810 more variables: c13 <dbl>, c14 <dbl>, c15 <dbl>, c16 <dbl>, c17 <dbl>,
## #   c18 <dbl>, c19 <dbl>, c20 <dbl>, c21 <dbl>, c22 <dbl>, c23 <dbl>, c24 <dbl>, c25 <dbl>, c26 <dbl>,
## #   c27 <dbl>, c28 <dbl>, c29 <dbl>, c30 <dbl>, c31 <dbl>, c32 <dbl>, c33 <dbl>, c34 <dbl>, c35 <dbl>,
## #   c36 <dbl>, c37 <dbl>, c38 <dbl>, c39 <dbl>, c40 <dbl>, c41 <dbl>, c42 <dbl>, c43 <dbl>, c44 <dbl>,
## #   c45 <dbl>, c46 <dbl>, c47 <dbl>, c48 <dbl>, c49 <dbl>, c50 <dbl>, c51 <dbl>, c52 <dbl>, c53 <dbl>,
## #   c54 <dbl>, c55 <dbl>, c56 <dbl>, c57 <dbl>, c58 <dbl>, c59 <dbl>, c60 <dbl>, c61 <dbl>, c62 <dbl>,
## #   c63 <dbl>, c64 <dbl>, c65 <dbl>, c66 <dbl>, c67 <dbl>, c68 <dbl>, c69 <dbl>, c70 <dbl>, c71 <dbl>,
## #   c72 <dbl>, c73 <dbl>, c74 <dbl>, c75 <dbl>, c76 <dbl>, c77 <dbl>, c78 <dbl>, c79 <dbl>, c80 <dbl>,
## #   c81 <dbl>, c82 <dbl>, c83 <dbl>, c84 <dbl>, c85 <dbl>, c86 <dbl>, c87 <dbl>, c88 <dbl>, c89 <dbl>,
…
