3 Introducing the Multilevel Model for Change | Applied longitudinal data analysis in brms and the tidyverse
…
Anyway, here are the data in Table 3.1.

library(tidyverse)

early_int <-
  tibble(id      = rep(c(68, 70:72, 902, 904, 906, 908), each = 3),
         age     = rep(c(1, 1.5, 2), times = 8),
         cog     = c(103, 119, 96, 106, 107, 96, 112, 86, 73, 100, 93, 87, 
                     119, 93, 99, 112, 98, 79, 89, 66, 81, 117, 90, 76),
         program = rep(1:0, each = 12))

print(early_int)

## # A tibble: 24 x 4
##       id   age   cog program
##    <dbl> <dbl> <dbl>   <int>
##  1    68   1     103       1
##  2    68   1.5   119       1
##  3    68   2      96       1
##  4    70   1     106       1
##  5    70   1.5   107       1
##  6    70   2      96       1
##  7    71   1     112       1
##  8    71   1.5    86       1
##  9    71   2      73       1
## 10    72   1     100       1
## # … with 14 more rows
…
If you want to extract the intercepts from the tidy column, you might execute code like this.

unnest(by_id, tidy) %>%
  filter(term == "(Intercept)")

## # A tibble: 103 x 9
## # Groups:   id [103]
##       id data             model  term        estimate std.error statistic  p.value glance           
##    <dbl> <list>           <list> <chr>          <dbl>     <dbl>     <dbl>    <dbl> <list>           
##  1     1 <tibble [3 × 4]> <lm>   (Intercept)     117.  2.43e-14   4.81e15 1.32e-16 <tibble [1 × 12]>
##  2     2 <tibble [3 × 4]> <lm>   (Intercept)     110.  5.22e+ 0   2.11e 1 3.01e- 2 <tibble [1 × 12]>
##  3     3 <tibble [3 × 4]> <lm>   (Intercept)     117.  1.08e+ 1   1.08e 1 5.87e- 2 <tibble [1 × 12]>
##  4     4 <tibble [3 × 4]> <lm>   (Intercept)     136.  5.59e+ 0   2.42e 1 2.62e- 2 <tibble [1 × 12]>
##  5     5 <tibble [3 × 4]> <lm>   (Intercept)     108.  3.35e+ 0   3.21e 1 1.99e- 2 <tibble [1 × 12]>
##  6     6 <tibble [3 × 4]> <lm>   (Intercept)     110.  2.61e+ 0   4.21e 1 1.51e- 2 <tibble [1 × 12]>
##  7     7 <tibble [3 × 4]> <lm>   (Intercept)     124.  7.45e- 1   1.66e 2 3.84e- 3 <tibble [1 × 12]>
##  8     8 <tibble [3 × 4]> <lm>   (Intercept)      97   6.71e+ 0   1.45e 1 4.40e- 2 <tibble [1 × 12]>
##  9     9 <tibble [3 × 4]> <lm>   (Intercept)     121.  7.08e+ 0   1.71e 1 3.73e- 2 <tibble [1 × 12]>
## 10    10 <tibble [3 × 4]> <lm>   (Intercept)     109.  3.73e- 1   2.92e 2 2.18e- 3 <tibble [1 × 12]>
## # … with 93 more rows
…
