6 Modeling Discontinuous and Nonlinear Change | Applied longitudinal data analysis in brms and the tidyverse
…
Here’s a more focused look along the lines of Table 6.1.

wages_pp %>% 
  select(id, lnw, exper, ged, postexp) %>% 
  mutate(`ged by exper` = ged * exper) %>% 
  filter(id %in% c(206, 2365, 4384))

## # A tibble: 22 x 6
##       id   lnw exper   ged postexp `ged by exper`
##    <dbl> <dbl> <dbl> <dbl>   <dbl>          <dbl>
##  1   206  2.03  1.87     0    0              0   
##  2   206  2.30  2.81     0    0              0   
##  3   206  2.48  4.31     0    0              0   
##  4  2365  1.78  0.66     0    0              0   
##  5  2365  1.76  1.68     0    0              0   
##  6  2365  1.71  2.74     0    0              0   
##  7  2365  1.74  3.68     0    0              0   
##  8  2365  2.19  4.68     1    0              4.68
##  9  2365  2.04  5.72     1    1.04           5.72
## 10  2365  2.32  6.72     1    2.04           6.72
## # … with 12 more rows
…
Worked like a dream!

6.1.1.2 Including a discontinuity in slope, not elevation.

To specify a level-1 individual growth model that includes a discontinuity in slope, not elevation, you need a different time-varying predictor. Unlike GED, this predictor must clock the passage of time (like EXPER). But unlike EXPER, it must do so within only one of the two epochs (pre- or post-GED receipt). Adding a second temporal predictor allows each individual change trajectory to have two distinct slopes: one before the hypothesized discontinuity an another after. (p. 195, emphasis in the original)

In the wages_pp data, postexp is this second variable. Here is how it compares to the other relevant variables.

wages_pp %>% 
  select(id, ged, exper, postexp) %>% 
  filter(id >= 53)

## # A tibble: 6,384 x 4
##       id   ged exper postexp
##    <dbl> <dbl> <dbl>   <dbl>
##  1    53     0 0.781   0    
##  2    53     0 0.943   0    
##  3    53     1 0.957   0    
##  4    53     1 1.04    0.08 
##  5    53     1 1.06    0.1  
##  6    53     1 1.11    0.152
##  7    53     1 1.18    0.227
##  8    53     1 1.78    0.82 
##  9   122     0 2.04    0    
## 10   122     0 2.64    0    
## # … with 6,374 more rows
…
This concept caused me a good bit of frustration when learning about these models. Let’s walk through this slowly. In the last code block, we looked at four relevant variables. You may wonder why we executed filter(id >= 53). This is because the first two participants always had ged == 1. They’re valid cases and all, but those data won’t be immediately helpful for understanding what’s going on with postexp. Happily, the next case, id == 53, is perfect for our goal. First, notice how that person’s postexp values are always 0 when ged == 0. Second, notice how the first time where ged == 1, postexp is still a 0. Third, notice that after that first initial row, postexp increases. If you caught all that, go you!

To make the next point, it’ll come in handy to subset the data. Because we’re trying to understand the relationship between exper and postesp conditional on ged, cases for which ged is always the same will be of little use. Let’s drop them.

wages_pp_subset <-
  wages_pp %>% 
  group_by(id) %>% 
  filter(mean(ged) > 0) %>% 
  filter(mean(ged) < 1) %>% 
  ungroup() %>% 
  select(id, ged, exper, postexp)

wages_pp_subset

## # A tibble: 819 x 4
##       id   ged exper postexp
##    <dbl> <dbl> <dbl>   <dbl>
##  1    53     0 0.781   0    
##  2    53     0 0.943   0    
##  3    53     1 0.957   0    
##  4    53     1 1.04    0.08 
##  5    53     1 1.06    0.1  
##  6    53     1 1.11    0.152
##  7    53     1 1.18    0.227
##  8    53     1 1.78    0.82 
##  9   134     0 0.192   0    
## 10   134     0 0.972   0    
## # … with 809 more rows

What might not be obvious yet is exper and postexp scale together. To show how this works, we’ll make two new columns. First, we’ll mark the minimum exper value for each level of id. Then we’ll make a exper - postexp which is exactly what the name implies. Here’s what that looks like.

wages_pp_subset %>% 
  filter(ged == 1) %>% 
  group_by(id) %>% 
  mutate(min_exper         = min(exper),
         `exper - postexp` = exper - postexp)

## # A tibble: 525 x 6
## # Groups:   id [107]
##       id   ged exper postexp min_exper `exper - postexp`
##    <dbl> <dbl> <dbl>   <dbl>     <dbl>             <dbl>
##  1    53     1 0.957   0         0.957             0.957
##  2    53     1 1.04    0.08      0.957             0.957
##  3    53     1 1.06    0.1       0.957             0.957
##  4    53     1 1.11    0.152     0.957             0.958
##  5    53     1 1.18    0.227     0.957             0.958
##  6    53     1 1.78    0.82      0.957             0.957
##  7   134     1 3.92    0         3.92              3.92 
##  8   134     1 4.64    0.72      3.92              3.92 
##  9   134     1 5.64    1.72      3.92              3.92 
## 10   134     1 6.75    2.84      3.92              3.92 
## # … with 515 more rows

Huh. For each case, the min_exper value is (near)identical with exper - postexp. The reason they’re not always identical is simply rounding error. Had we computed them by hand without rounding, they would always be the same. This relationship is the consequence of our having coded postexp == 0 the very first time ged == 1, but allowed it to linearly increase afterward. Within each level of id–and conditional on ged == 1–, the way it increases is simply exper – min(exper). Here’s that value.

wages_pp_subset %>% 
  filter(ged == 1) %>% 
  group_by(id) %>% 
  mutate(min_exper         = min(exper),
         `exper - postexp` = exper - postexp) %>% 
  mutate(`exper - min_exper` = exper - min_exper)

## # A tibble: 525 x 7
## # Groups:   id [107]
##       id   ged exper postexp min_exper `exper - postexp` `exper - min_exper`
##    <dbl> <dbl> <dbl>   <dbl>     <dbl>             <dbl>               <dbl>
##  1    53     1 0.957   0         0.957             0.957              0     
##  2    53     1 1.04    0.08      0.957             0.957              0.0800
##  3    53     1 1.06    0.1       0.957             0.957              0.100 
##  4    53     1 1.11    0.152     0.957             0.958              0.153 
##  5    53     1 1.18    0.227     0.957             0.958              0.228 
##  6    53     1 1.78    0.82      0.957             0.957              0.82  
##  7   134     1 3.92    0         3.92              3.92               0     
##  8   134     1 4.64    0.72      3.92              3.92               0.720 
##  9   134     1 5.64    1.72      3.92              3.92               1.72  
## 10   134     1 6.75    2.84      3.92              3.92               2.84  
## # … with 515 more rows
…
