5 Treating Time More Flexibly | Applied longitudinal data analysis in brms and the tidyverse
…
##    Estimate   Est.Error        Q2.5       Q97.5 
## -0.41939121  0.08219635 -0.58326498 -0.26099457

fixef(fit5.12)["months", ]

##    Estimate   Est.Error        Q2.5       Q97.5 
## -0.20514104  0.09149029 -0.38731834 -0.02449475

You might be wondering why the quote from Singer and Willett used positive numbers while our parameter estimates have negative ones. No, there’s no mistake, there. Negative parameter estimates for monthly trajectories are then same thing as expressing a rate of decline with a positive number. But anyways, you see our estimates are on par with theirs. With our Bayesian paradigm, it’s also easy to get a formal difference distribution.

tibble(fit5.11 = posterior_samples(fit5.11) %>% pull("b_months"),
       fit5.12 = posterior_samples(fit5.12) %>% pull("b_months"))

## # A tibble: 4,000 x 2
##    fit5.11 fit5.12
##      <dbl>   <dbl>
##  1  -0.598 -0.200 
##  2  -0.465 -0.303 
##  3  -0.586 -0.279 
##  4  -0.486 -0.295 
##  5  -0.453 -0.0517
##  6  -0.416 -0.278 
##  7  -0.412 -0.204 
##  8  -0.384 -0.247 
##  9  -0.404 -0.131 
## 10  -0.506 -0.215 
## # … with 3,990 more rows
…
