…
The data are composed of cognitive task scores for 35 people across 4
time points.

``` r
opposites_pp %>% 
  count(id)
```

    ## # A tibble: 35 x 2
    ##       id     n
    ##    <dbl> <int>
    ##  1     1     4
    ##  2     2     4
    ##  3     3     4
    ##  4     4     4
    ##  5     5     4
    ##  6     6     4
    ##  7     7     4
    ##  8     8     4
    ##  9     9     4
    ## 10    10     4
    ## # … with 25 more rows
…
Here’s the numeric summary.

``` r
sigma.hcs %>% 
  pivot_longer(everything()) %>% 
  group_by(name) %>% 
  median_qi(value) %>% 
  mutate_if(is.double, round, digits = 2)
```

    ## # A tibble: 21 x 7
    ##    name                    value .lower  .upper .width .point .interval
    ##    <chr>                   <dbl>  <dbl>   <dbl>  <dbl> <chr>  <chr>    
    ##  1 rho                      0.72   0.59    0.83   0.95 median qi       
    ##  2 sigma[1]                38.0   30.4    49.0    0.95 median qi       
    ##  3 sigma[1]*sigma[2]*rho  893.   523.   1588.     0.95 median qi       
    ##  4 sigma[1]*sigma[3]*rho  924.   540.   1624.     0.95 median qi       
    ##  5 sigma[1]*sigma[4]*rho  984.   579.   1774.     0.95 median qi       
    ##  6 sigma[1]^2            1442.   922.   2399.     0.95 median qi       
    ##  7 sigma[2]                32.8   26.3    42.0    0.95 median qi       
    ##  8 sigma[2]*sigma[1]*rho  893.   523.   1588.     0.95 median qi       
    ##  9 sigma[2]*sigma[3]*rho  793.   475.   1398.     0.95 median qi       
    ## 10 sigma[2]*sigma[4]*rho  847.   500.   1504.     0.95 median qi       
    ## # … with 11 more rows
…
