…
Here’s a quick way to arrange the `seconds` values and `censor` status
of each case in a similar way to how they appear in Table 13.1.

``` r
honking %>% 
  arrange(seconds) %>% 
  transmute(seconds = ifelse(censor == 0, seconds, str_c(seconds, "*")))
```

    ## # A tibble: 57 x 1
    ##    seconds
    ##    <chr>  
    ##  1 1.41   
    ##  2 1.41*  
    ##  3 1.51   
    ##  4 1.67   
    ##  5 1.68   
    ##  6 1.86   
    ##  7 2.12   
    ##  8 2.19   
    ##  9 2.36*  
    ## 10 2.48   
    ## # … with 47 more rows
…
h
```

    ## # A tibble: 32,000 x 3
    ##     iter  time      p
    ##    <int> <int>  <dbl>
    ##  1     1     2 0.164 
    ##  2     1     3 0.262 
    ##  3     1     4 0.367 
    ##  4     1     5 0.255 
    ##  5     1     6 0.199 
    ##  6     1     7 0.442 
    ##  7     1     8 0.287 
    ##  8     1    18 0.654 
    ##  9     2     2 0.0650
    ## 10     2     3 0.309 
    ## # … with 31,990 more rows
…
honking_km
```

    ## # A tibble: 42 x 9
    ##    interval interval_f seconds start   end n_risk n_events n_censored `p(t)`
    ##       <int> <fct>        <dbl> <dbl> <dbl>  <dbl>    <dbl>      <dbl>  <dbl>
    ##  1        1 1             1.41  1.41  1.51     57        1          1 0.0175
    ##  2        2 2             1.51  1.51  1.67     55        1          0 0.0182
    ##  3        3 3             1.67  1.67  1.68     54        1          0 0.0185
    ##  4        4 4             1.68  1.68  1.86     53        1          0 0.0189
    ##  5        5 5             1.86  1.86  2.12     52        1          0 0.0192
    ##  6        6 6             2.12  2.12  2.19     51        1          0 0.0196
    ##  7        7 7             2.19  2.19  2.48     50        1          1 0.02  
    ##  8        8 8             2.48  2.48  2.5      48        1          0 0.0208
    ##  9        9 9             2.5   2.5   2.53     47        1          0 0.0213
    ## 10       10 10            2.53  2.53  2.54     46        1          0 0.0217
    ## # … with 32 more rows
…
Here we compute both the \(\text{width}_j\) and
\(\hat h_\text{KM} (t_j)\) values by hand.

``` r
honking_km <-
  honking_km %>% 
  mutate(width = end - start) %>% 
  mutate(width = if_else(end == Inf, 17.15 - start, width)) %>%  # this might be wrong
  mutate(`h[km](t)` = `p(t)` / width)

honking_km
```

    ## # A tibble: 42 x 13
    ##    interval interval_f seconds start   end n_risk n_events n_censored `p(t)` `S(t)` `se[S(t)]`
    ##       <int> <fct>        <dbl> <dbl> <dbl>  <dbl>    <dbl>      <dbl>  <dbl>  <dbl>      <dbl>
    ##  1        1 1             1.41  1.41  1.51     57        1          1 0.0175  0.982     0.0174
    ##  2        2 2             1.51  1.51  1.67     55        1          0 0.0182  0.965     0.0246
    ##  3        3 3             1.67  1.67  1.68     54        1          0 0.0185  0.947     0.0299
    ##  4        4 4             1.68  1.68  1.86     53        1          0 0.0189  0.929     0.0343
    ##  5        5 5             1.86  1.86  2.12     52        1          0 0.0192  0.911     0.0380
    ##  6        6 6             2.12  2.12  2.19     51        1          0 0.0196  0.893     0.0412
    ##  7        7 7             2.19  2.19  2.48     50        1          1 0.02    0.875     0.0441
    ##  8        8 8             2.48  2.48  2.5      48        1          0 0.0208  0.857     0.0468
    ##  9        9 9             2.5   2.5   2.53     47        1          0 0.0213  0.839     0.0492
    ## 10       10 10            2.53  2.53  2.54     46        1          0 0.0217  0.821     0.0514
    ## # … with 32 more rows, and 2 more variables: width <dbl>, `h[km](t)` <dbl>
…
  return(d)
  
}
```

Here’s an example of our custom `km_tibble()` function works based on
our earlier model of the `honking` data, `fit13.2`.

``` r
km_tibble(fit13.2)
```

    ## # A tibble: 44 x 9
    ##    interval interval_f  time n_risk n_events n_censored       p     S       H
    ##       <dbl> <fct>      <dbl>  <dbl>    <dbl>      <dbl>   <dbl> <dbl>   <dbl>
    ##  1        0 0           0        57        0          0 NA      1     NA     
    ##  2        1 1           1.41     57        1          1  0.0175 0.982  0.0177
    ##  3        2 2           1.51     55        1          0  0.0182 0.965  0.0360
    ##  4        3 3           1.67     54        1          0  0.0185 0.947  0.0547
    ##  5        4 4           1.68     53        1          0  0.0189 0.929  0.0738
    ##  6        5 5           1.86     52        1          0  0.0192 0.911  0.0932
    ##  7        6 6           2.12     51        1          0  0.0196 0.893  0.113 
    ##  8        7 7           2.19     50        1          1  0.02   0.875  0.133 
    ##  9        8 8           2.48     48        1          0  0.0208 0.857  0.154 
    ## 10        9 9           2.5      47        1          0  0.0213 0.839  0.176 
    ## # … with 34 more rows
…
``` r
post <-
  tibble(brms    = str_c("fit13.", 8:11),
         survfit = str_c("fit13.", 4:7)) %>% 
  mutate(post = map2(brms, survfit, wrangle_samples)) %>% 
  unnest(post)

post
```

    ## # A tibble: 1,796,000 x 12
    ##    brms    survfit  iter interval     p     S     H interval_f  time n_risk n_events n_censored
    ##    <chr>   <chr>   <int>    <dbl> <dbl> <dbl> <dbl> <fct>      <dbl>  <dbl>    <dbl>      <dbl>
    ##  1 fit13.8 fit13.4     1        0     0     1     0 0              0     89        0          0
    ##  2 fit13.8 fit13.4     2        0     0     1     0 0              0     89        0          0
    ##  3 fit13.8 fit13.4     3        0     0     1     0 0              0     89        0          0
    ##  4 fit13.8 fit13.4     4        0     0     1     0 0              0     89        0          0
    ##  5 fit13.8 fit13.4     5        0     0     1     0 0              0     89        0          0
    ##  6 fit13.8 fit13.4     6        0     0     1     0 0              0     89        0          0
    ##  7 fit13.8 fit13.4     7        0     0     1     0 0              0     89        0          0
    ##  8 fit13.8 fit13.4     8        0     0     1     0 0              0     89        0          0
    ##  9 fit13.8 fit13.4     9        0     0     1     0 0              0     89        0          0
    ## 10 fit13.8 fit13.4    10        0     0     1     0 0              0     89        0          0
    ## # … with 1,795,990 more rows
…
